{"sites":[
{"key":"csp_appys_饭团影视","name":"饭团影视(M2)","type":3,"api":"csp_AppYs","searchable":1,"quickSearch":1,"filterable":1,"ext":"http://television.wkfile.com/api.php/app/"},
{"key":"csp_appysv2_追剧达人","name":"追剧推荐(M2)","type":3,"api":"csp_AppYsV2","searchable":1,"quickSearch":1,"filterable":1,"ext":"https://vipmv.co/xgapp.php/v1/"},
{"key":"csp_appysv2_星空影视","name":"星空推荐(M2)","type":3,"api":"csp_AppYsV2","searchable":1,"quickSearch":1,"filterable":1,"ext":"https://xkys.tv/xgapp.php/v1/"},
{"key":"csp_appysv2_天空影视","name":"天空推荐(M2)","type":3,"api":"csp_AppYsV2","searchable":1,"quickSearch":1,"filterable":1,"ext":"https://tkys.tv/xgapp.php/v1/"},
{"key":"csp_appysv2_天空影视V2","name":"天空影视V2(M2)","type":3,"api":"csp_AppYsV2","searchable":1,"quickSearch":1,"filterable":1,"ext":"https://www.tkys.tv/xgapp.php/v2/"},
{"key":"csp_appys_片兒多","name":"片兒多(M2)","type":3,"api":"csp_AppYs","searchable":1,"quickSearch":1,"filterable":1,"ext":"http://221.236.18.12:665/api.php/v1.vod"},
{"key":"csp_appys_猫爪影视","name":"猫爪影视(M2)","type":3,"api":"csp_AppYs","searchable":1,"quickSearch":1,"filterable":1,"ext":"http://www.69ty.cc/mogai_api.php/v1.vod"},
{"key":"if101资源","name":"海外推荐","type":1,"api":"https://demo.if101.tv/api.php/provide/vod/?ac=list","searchable":1,"quickSearch":1,"filterable":1},
{"key":"无尽资源","name":"无尽资源","type":1,"api":"https://api.wujinapi.com/api.php/provide/vod/?ac=list","searchable":1,"quickSearch":1,"filterable":1},
{"key": "lezhu","name": "乐猪爬虫","type": 1,"api": "http://pandown.pro/maoys/lezhu.php"},
{"key": "cokemv","name": "cokemv爬虫","type": 1,"api": "http://pandown.pro/maoys/cokemv.php"},
{"key": "chuxin","name": "初心爬虫","type": 1,"api": "http://pandown.pro/maoys/chuxin.php"},
{"key": "buka","name": "不开VIP爬虫","type": 1,"api": "http://pandown.pro/maoys/buka.php"},
{"key": "xuangz","name": "六度爬虫","type": 1,"api": "http://pandown.pro/maoys/xuangz.php"},
{"key": "libvio","name": "libvio爬虫","type": 1,"api": "http://pandown.pro/maoys/libvio.php"},
{"key": "ysgc","name": "毒蛇爬虫","type": 1,"api": "http://pandown.pro/maoys/ysgc.php"},
{"key": "tv552","name": "迪迪爬虫","type": 1,"api": "http://pandown.pro/maoys/tv552.php"},
{"key":"csp_Enlienli","name":"嗯哩嗯哩(爬虫)","type":3,"api":"csp_Enlienli","searchable":1,"quickSearch":1,"filterable":1},
{"key":"csp_Cokemv","name":"Cokemv(爬虫)","type":3,"api":"csp_Cokemv","searchable":1,"quickSearch":1,"filterable":1},
{"key":"csp_N0ys","name":"90影视(爬虫)","type":3,"api":"csp_N0ys","searchable":1,"quickSearch":1,"filterable":1},
{"key":"csp_Nekk","name":"9E看看(爬虫)","type":3,"api":"csp_Nekk","searchable":1,"quickSearch":1,"filterable":1},
{"key":"独播库","name":"独播库(XPath)","type":3,"api":"csp_XPathDbk","searchable":1,"quickSearch":1,"filterable":1,"ext":"https://mo-xiao.coding.net/p/c/d/c/git/raw/master/sub/xpath/Duboku.json"},
{"key":"csp_xpath_Jumi","name":"剧迷(XPath)","type":3,"api":"csp_XPathJumi","searchable":1,"quickSearch":1,"filterable":1,"ext":"https://mo-xiao.coding.net/p/c/d/c/git/raw/master/sub/xpath/Jumi.json"},
{"key":"csp_xpath_dmntv","name":"狐灵影视(XPath)","type":3,"api":"csp_XPathFilter","searchable":1,"quickSearch":1,"filterable":1,"ext":"https://mo-xiao.coding.net/p/c/d/c/git/raw/master/sub/xpath/dmntv.json"},
{"key":"csp_xpath_94sm","name":"94神马(XPath)","type":3,"api":"csp_XPath","searchable":1,"quickSearch":1,"filterable":1,"ext":"https://mo-xiao.coding.net/p/c/d/c/git/raw/master/sub/xpath/94sm.json"},
{"key":"csp_xpath_tvci","name":"大师兄(XPath)","type":3,"api":"csp_XPathMacFilter","searchable":1,"quickSearch":1,"filterable":1,"ext":"https://mo-xiao.coding.net/p/c/d/c/git/raw/master/sub/xpath/tvci.json"},
{"key":"csp_xpath_dm84","name":"动漫巴士(XPath)","type":3,"api":"csp_XPath","searchable":1,"quickSearch":1,"filterable":1,"ext":"https://mo-xiao.coding.net/p/c/d/c/git/raw/master/sub/xpath/dm84.json"},
{"key":"唐人街","name":"唐人街(XPath)","type":3,"api":"csp_XPathMacFilter","searchable":1,"quickSearch":1,"filterable":1,"ext":"https://mo-xiao.coding.net/p/c/d/c/git/raw/master/sub/xpath/Renjie.json"},
{"key":"Gimy","name":"Gimy(XPath)","type":3,"api":"csp_XPathMacFilter","searchable":1,"quickSearch":1,"filterable":1,"ext":"https://mo-xiao.coding.net/p/c/d/c/git/raw/master/sub/xpath/Gimy.json"},
{"key":"csp_xpath_lezhutv","name":"乐猪TV(XPath)","type":3,"api":"csp_XPathMac","searchable":1,"quickSearch":1,"filterable":1,"ext":"https://mo-xiao.coding.net/p/c/d/c/git/raw/master/sub/xpath/lezhutv.json"},
{"key":"csp_xpath_meiju56","name":"美剧网(XPath)","type":3,"api":"csp_XPathMacFilter","searchable":1,"quickSearch":1,"filterable":1,"ext":"https://mo-xiao.coding.net/p/c/d/c/git/raw/master/sub/xpath/meiju56.json"},
{"key":"csp_xpath_lranc","name":"天天影视(XPath)","type":3,"api":"csp_XPathMacFilter","searchable":1,"quickSearch":1,"filterable":1,"ext":"https://mo-xiao.coding.net/p/c/d/c/git/raw/master/sub/xpath/lranc.json"},
{"key":"csp_xpath_4kpianku","name":"4k片库网(XPath)","type":3,"api":"csp_XPathMacFilter","searchable":1,"quickSearch":1,"filterable":1,"ext":"https://mo-xiao.coding.net/p/c/d/c/git/raw/master/sub/xpath/4kpianku.json"},
{"key":"csp_xpath_agefans","name":"Age动漫(XPath)","type":3,"api":"csp_XPath","searchable":1,"quickSearch":1,"filterable":1,"ext":"https://mo-xiao.coding.net/p/c/d/c/git/raw/master/sub/xpath/agefans.json"},
{"key":"csp_xpath_saohuotv2","name":"骚火电影(XPath)","type":3,"api":"csp_XPath","searchable":1,"quickSearch":1,"filterable":1,"ext":"https://mo-xiao.coding.net/p/c/d/c/git/raw/master/sub/xpath/saohuotv2.json"},
{"key":"csp_xpath_subb","name":"素白白影视(XPath)","type":3,"api":"csp_XPath","searchable":1,"quickSearch":1,"filterable":1,"ext":"https://mo-xiao.coding.net/p/c/d/c/git/raw/master/sub/xpath/subaibai.json"},
{"key":"csp_appysv2_tvip","name":"tvip(M2)","type":3,"api":"csp_AppYsV2","searchable":1,"quickSearch":1,"filterable":1,"ext":"http://app.tvip.cc/api.php/v1.vod"},
{"key":"csp_appysv2_飓风影院","name":"飓风影院(M2)","type":3,"api":"csp_AppYsV2","searchable":1,"quickSearch":1,"filterable":1,"ext":"http://yidayy.top/lehailb_api.php/v1.vod"},
{"key":"csp_appysv2_大熊","name":"大熊(M2)","type":3,"api":"csp_AppYsV2","searchable":1,"quickSearch":1,"filterable":1,"ext":"https://dxys2233.com/mogai_api.php/v1.vod"},
{"key":"csp_appysv2_流星","name":"流星(M2)","type":3,"api":"csp_AppYsV2","searchable":1,"quickSearch":1,"filterable":1,"ext":"http://fkxs2233.com/mogai_api.php/v1.vod"},
{"key":"csp_appysv2_全能","name":"全能(M2)","type":3,"api":"csp_AppYsV2","searchable":1,"quickSearch":1,"filterable":1,"ext":"https://qnys5566.com/mogai_api.php/v1.vod/"},
{"key":"csp_appysv2_心爱","name":"心爱(优)","type":3,"api":"csp_AppYsV2","searchable":1,"quickSearch":1,"filterable":1,"ext":"https://xays6677.com/mogai_api.php/v1.vod"},
{"key":"csp_appysv2_雪梨","name":"雪梨(优)","type":3,"api":"csp_AppYsV2","searchable":1,"quickSearch":1,"filterable":1,"ext":"https://zsb2233.com/mogai_api.php/v1.vod"},
{"key":"csp_appysv2_杨桃","name":"杨桃(优)","type":3,"api":"csp_AppYsV2","searchable":1,"quickSearch":1,"filterable":1,"ext":"https://ytys3456.com/mogai_api.php/v1.vod"},
{"key":"csp_appysv2_九合","name":"九合(M2)","type":3,"api":"csp_AppYsV2","searchable":1,"quickSearch":1,"filterable":1,"ext":"https://ptygx.com/api.php/app/"},
{"key":"csp_appysv2_迪迪影院","name":"迪迪影院V2(M2)","type":3,"api":"csp_AppYsV2","searchable":1,"quickSearch":1,"filterable":1,"ext":"http://dd88.icu:6080/xgapp.php/v2/"},
{"key":"csp_appysv2_手指影视","name":"手指影视(M2)","type":3,"api":"csp_AppYsV2","searchable":1,"quickSearch":1,"filterable":1,"ext":"https://szys5678.com/mogai_api.php/v1.vod"},
{"key":"csp_appysv2_913e","name":"913e(M2)","type":3,"api":"csp_AppYsV2","searchable":1,"quickSearch":1,"filterable":1,"ext":"http://www.913e.net/xgapp.php/v1/"},
{"key":"csp_appysv2_萌蛋蛋","name":"萌蛋蛋(M2)","type":3,"api":"csp_AppYsV2","searchable":1,"quickSearch":1,"filterable":1,"ext":"http://app.mengdandan.com/xgapp.php/v1/"},
{"key":"csp_appysv2_1080p","name":"1080p(优)","type":3,"api":"csp_AppYsV2","searchable":1,"quickSearch":1,"filterable":1,"ext":"https://1080p.one/lvdou_api.php/v1.vod"},
{"key":"csp_appysv2_300看世界","name":"300看世界(优)","type":3,"api":"csp_AppYsV2","searchable":1,"quickSearch":1,"filterable":1,"ext":"https://300ys.xyz/api.php/v1.vod"},
{"key":"csp_appysv2_4K影院","name":"4K影院(优)","type":3,"api":"csp_AppYsV2","searchable":1,"quickSearch":1,"filterable":1,"ext":"http://1api.4kdytv.com/api.php/v1.vod"},
{"key":"csp_appysv2_CJT影院","name":"CJT影院(优)","type":3,"api":"csp_AppYsV2","searchable":1,"quickSearch":1,"filterable":1,"ext":"https://www.cjt521.com/api.php/v1.vod"},
{"key":"csp_appysv2_DC影视","name":"DC影视(优)","type":3,"api":"csp_AppYsV2","searchable":1,"quickSearch":1,"filterable":1,"ext":"http://chaorenbb.com/api.php/v1.vod"},
{"key":"csp_appysv2_F7高清","name":"F7高清(优)","type":3,"api":"csp_AppYsV2","searchable":1,"quickSearch":1,"filterable":1,"ext":"http://bc.haokanju1.cc/lvdou_api.php/v1.vod"},
{"key":"csp_appysv2_爱酷影视","name":"爱酷影视(优)","type":3,"api":"csp_AppYsV2","searchable":1,"quickSearch":1,"filterable":1,"ext":"https://www.zhanlangbu.com/ruifenglb_api.php/v1.vod"},
{"key":"csp_appysv2_菜鸟追剧","name":"菜鸟追剧(优)","type":3,"api":"csp_AppYsV2","searchable":1,"quickSearch":1,"filterable":1,"ext":"http://81.71.18.95:5555/mogai_api.php/v1.vod"},
{"key":"csp_appysv2_白嫖影视","name":"白嫖影视(优)","type":3,"api":"csp_AppYsV2","searchable":1,"quickSearch":1,"filterable":1,"ext":"http://zgjxdtg.cn/api.php/v1.vod"},
{"key":"csp_appysv2_初心影视","name":"初心影视(优)","type":3,"api":"csp_AppYsV2","searchable":1,"quickSearch":1,"filterable":1,"ext":"https://www.18mv.club/api.php/v1.vod"},
{"key":"csp_appysv2_独播社","name":"独播社(优)","type":3,"api":"csp_AppYsV2","searchable":1,"quickSearch":1,"filterable":1,"ext":"http://35ys.cc/api.php/v1.vod"},
{"key":"csp_appysv2_叮当影视","name":"叮当影视(优)","type":3,"api":"csp_AppYsV2","searchable":1,"quickSearch":1,"filterable":1,"ext":"https://tv.0573wl.com/api.php/v1.vod"},
{"key":"csp_appysv2_段友影视","name":"段友影视(优)","type":3,"api":"csp_AppYsV2","searchable":1,"quickSearch":1,"filterable":1,"ext":"http://121.204.249.135:4433/ruifenglb_api.php/v1.vod"},
{"key":"csp_appysv2_段友2影视","name":"段友2影视(优)","type":3,"api":"csp_AppYsV2","searchable":1,"quickSearch":1,"filterable":1,"ext":"https://shangjihuoke.com/api.php/tv.vod"},
{"key":"csp_appysv2_飞捷影视","name":"飞捷影视(优)","type":3,"api":"csp_AppYsV2","searchable":1,"quickSearch":1,"filterable":1,"ext":"https://www.fj6080.com/api.php/v1.vod"},
{"key":"csp_appysv2_疯狂看","name":"疯狂看(优)","type":3,"api":"csp_AppYsV2","searchable":1,"quickSearch":1,"filterable":1,"ext":"http://app.fkkdy.vip/mogai_api.php/v1.vod"},
{"key":"csp_appysv2_粉象视界","name":"粉象视界(优)","type":3,"api":"csp_AppYsV2","searchable":1,"quickSearch":1,"filterable":1,"ext":"http://42.157.129.15:34444/lvdou_api.php/v1.vod"},
{"key":"csp_appysv2_虎猫视频","name":"虎猫视频(优)","type":3,"api":"csp_AppYsV2","searchable":1,"quickSearch":1,"filterable":1,"ext":"https://humaosp.com/mogai_api.php/v1.vod"},
{"key":"csp_appysv2_看看影视","name":"看看影视(优)","type":3,"api":"csp_AppYsV2","searchable":1,"quickSearch":1,"filterable":1,"ext":"http://kk.ccboke.top/ruifenglb_api.php/v1.vod"},
{"key":"csp_appysv2_猫咪TV","name":"猫咪TV(优)","type":3,"api":"csp_AppYsV2","searchable":1,"quickSearch":1,"filterable":1,"ext":"http://106.12.113.90:6565/api.php/iptv/vod/"},
{"key":"csp_appysv2_康耀影视","name":"康耀影视(优)","type":3,"api":"csp_AppYsV2","searchable":1,"quickSearch":1,"filterable":1,"ext":"http://124.222.126.23:999/mogai_api.php/v1.vod"},
{"key":"csp_appysv2_六把刀影院","name":"六把刀影院(优)","type":3,"api":"csp_AppYsV2","searchable":1,"quickSearch":1,"filterable":1,"ext":"https://pro.6bd.net/mogai_api.php/v1.vod"},
{"key":"csp_appysv2_绿箭影视","name":"绿箭影视(优)","type":3,"api":"csp_AppYsV2","searchable":1,"quickSearch":1,"filterable":1,"ext":"http://www.69ty.cc/mogai_api.php/v1.vod"},
{"key":"csp_appysv2_零刻影院","name":"零刻影院(优)","type":3,"api":"csp_AppYsV2","searchable":1,"quickSearch":1,"filterable":1,"ext":"https://ys.ling00.cn/api.php/v1.vod"},
{"key":"csp_appysv2_蓝猫影院","name":"蓝猫影院(优)","type":3,"api":"csp_AppYsV2","searchable":1,"quickSearch":1,"filterable":1,"ext":"http://www.baofu111.top/mogai_api.php/v1.vod"},
{"key":"csp_appysv2_琅琊影视","name":"琅琊影视(优)","type":3,"api":"csp_AppYsV2","searchable":1,"quickSearch":1,"filterable":1,"ext":"http://fgyuu.top/lehailb_api.php/v1.vod"},
{"key":"csp_appysv2_蜜蜂影视","name":"蜜蜂影视(优)","type":3,"api":"csp_AppYsV2","searchable":1,"quickSearch":1,"filterable":1,"ext":"http://app.f8tp.com/lvdou_api.php/v1.vod"},
{"key":"csp_appysv2_麻瓜视频","name":"麻瓜视频(优)","type":3,"api":"csp_AppYsV2","searchable":1,"quickSearch":1,"filterable":1,"ext":"http://aliyun.k8aa.com/mogai_api.php/v1.vod"},
{"key":"csp_appysv2_美剧虫","name":"美剧虫(优)","type":3,"api":"csp_AppYsV2","searchable":1,"quickSearch":1,"filterable":1,"ext":"https://meijuchong.com/api.php/v1.vod"},
{"key":"csp_appysv2_奈非迷","name":"奈非迷(优)","type":3,"api":"csp_AppYsV2","searchable":1,"quickSearch":1,"filterable":1,"ext":"https://app.netflixmi.com/api.php/v1.vod"},
{"key":"csp_appysv2_南府影视","name":"南府影视(优)","type":3,"api":"csp_AppYsV2","searchable":1,"quickSearch":1,"filterable":1,"ext":"http://iapp.nfuxs.club/dnmb.php/v1.vod"},
{"key":"csp_appysv2_暖光影视","name":"暖光影视(优)","type":3,"api":"csp_AppYsV2","searchable":1,"quickSearch":1,"filterable":1,"ext":"https://app.bl210.com/api.php/v1.vod"},
{"key":"csp_appysv2_念念影视","name":"念念影视(优)","type":3,"api":"csp_AppYsV2","searchable":1,"quickSearch":1,"filterable":1,"ext":"https://998.yuanmajs.cn/api.php/v1.vod"},
{"key":"csp_appysv2_柠柚影视","name":"柠柚影视(优)","type":3,"api":"csp_AppYsV2","searchable":1,"quickSearch":1,"filterable":1,"ext":"http://nu.e4tv.cn/lvdou_api.php/v1.vod"},
{"key":"csp_appysv2_思乐影视","name":"思乐影视(优)","type":3,"api":"csp_AppYsV2","searchable":1,"quickSearch":1,"filterable":1,"ext":"https://www.huandian.top/ruifenglb_api.php/v1.vod"},
{"key":"csp_appysv2_天天影视","name":"天天影视(优)","type":3,"api":"csp_AppYsV2","searchable":1,"quickSearch":1,"filterable":1,"ext":"https://app.daishusc.com/api.php/v1.vod"},
{"key":"csp_appysv2_兄弟影视","name":"兄弟影视(优)","type":3,"api":"csp_AppYsV2","searchable":1,"quickSearch":1,"filterable":1,"ext":"http://app.xdys.vip/mogai_api.php/v1.vod"},
{"key":"csp_appysv2_益达影院","name":"益达影院(优)","type":3,"api":"csp_AppYsV2","searchable":1,"quickSearch":1,"filterable":1,"ext":"http://luobu.yss6080.com/mogai_api.php/v1.vod"},
{"key":"csp_appysv2_月色影视","name":"月色影视(优)","type":3,"api":"csp_AppYsV2","searchable":1,"quickSearch":1,"filterable":1,"ext":"http://69ty.cc/mogai_api.php/v1.vod"},
{"key":"csp_appysv2_优视影视","name":"优视影视(优)","type":3,"api":"csp_AppYsV2","searchable":1,"quickSearch":1,"filterable":1,"ext":"http://app.ysys.asia/lvdou_api.php/v1.vod"},
{"key":"csp_appysv2_影阅阁","name":"影阅阁(优)","type":3,"api":"csp_AppYsV2","searchable":1,"quickSearch":1,"filterable":1,"ext":"http://221.236.18.12:665/api.php/v1.vod"},
{"key":"csp_appysv2_追剧吧","name":"追剧吧(优)","type":3,"api":"csp_AppYsV2","searchable":1,"quickSearch":1,"filterable":1,"ext":"http://zhuiju8.vip/api.php/v1.vod"},

{"key":"csp_appysv2_51视频","name":"51视频(普)","type":3,"api":"csp_AppYsV2","searchable":1,"quickSearch":1,"filterable":1,
"ext":"http://51shipin.cc/mogai_api.php/v1.vod"},
{"key":"csp_appysv2_CC影视","name":"CC影视(普)","type":3,"api":"csp_AppYsV2","searchable":1,"quickSearch":1,"filterable":1,"ext":"https://ccbug.cc/lvdou_api.php/v1.vod"},
{"key":"csp_appysv2_JDODO","name":"JDODO(普)","type":3,"api":"csp_AppYsV2","searchable":1,"quickSearch":1,"filterable":1,
"ext":"https://appys.jdodo.xyz/mogai_api.php/v1.vod"},
{"key":"csp_appysv2_nod影视","name":"nod影视(普)","type":3,"api":"csp_AppYsV2","searchable":1,"quickSearch":1,"filterable":1,"ext":"https://appys.jdodo.xyz/mogai_api.php/v1.vod"},
{"key":"csp_appysv2_QC影视","name":"QC影视(普)","type":3,"api":"csp_AppYsV2","searchable":1,"quickSearch":1,"filterable":1,"ext":"http://yss.kkysw.top/mogai_api.php/v1.vod"},
{"key":"csp_appysv2_U5影视","name":"U5影视(普)","type":3,"api":"csp_AppYsV2","searchable":1,"quickSearch":1,"filterable":1,"ext":"https://appx.uy07.com/api.php/v1.vod"},
{"key":"csp_appysv2_yoyo","name":"yoyo(普)","type":3,"api":"csp_AppYsV2","searchable":1,"quickSearch":1,"filterable":1,"ext":"http://jx.wnvod.net/ruifenglb_api.php/v1.vod"},
{"key":"csp_appysv2_阿里影视","name":"阿里影视(普)","type":3,"api":"csp_AppYsV2","searchable":1,"quickSearch":1,"filterable":1,"ext":"http://aliys.cn:90/api.php/v1.vod"},
{"key":"csp_appysv2_艾特影视","name":"艾特影视(普)","type":3,"api":"csp_AppYsV2","searchable":1,"quickSearch":1,"filterable":1,"ext":"https://www.aitee.cc/api.php/v1.vod"},
{"key":"csp_appysv2_嗷呜影院","name":"嗷呜影院(普)","type":3,"api":"csp_AppYsV2","searchable":1,"quickSearch":1,"filterable":1,"ext":"http://aowu.pro/api.php/v1.vod"},
{"key":"csp_appysv2_爱影视","name":"爱影视(普)","type":3,"api":"csp_AppYsV2","searchable":1,"quickSearch":1,"filterable":1,"ext":"https://www.hzlff.cn/api.php/v1.vod"},
{"key":"csp_appysv2_哔哔影院","name":"哔哔影院(普)","type":3,"api":"csp_AppYsV2","searchable":1,"quickSearch":1,"filterable":1,"ext":"http://baofu111.top/mogai_api.php/v1.vod"},
{"key":"csp_appysv2_百淘影视","name":"百淘影视(普)","type":3,"api":"csp_AppYsV2","searchable":1,"quickSearch":1,"filterable":1,"ext":"https://www.idianying.com.cn/mogai_api.php/v1.vod"},
{"key":"csp_appysv2_百淘影视2","name":"百淘影视2(普)","type":3,"api":"csp_AppYsV2","searchable":1,"quickSearch":1,"filterable":1,"ext":"http://ys.58g8.com/lvdou_api.php/v1.vod"},
{"key":"csp_appysv2_多啦咪PRO","name":"多啦咪PRO(普)","type":3,"api":"csp_AppYsV2","searchable":1,"quickSearch":1,"filterable":1,"ext":"http://yuenos-pro.miyuen.cn/qingdoujiekou.php/v1.vod"},
{"key":"csp_appysv2_比邻影视","name":"比邻影视(普)","type":3,"api":"csp_AppYsV2","searchable":1,"quickSearch":1,"filterable":1,"ext":"http://0hzy.cn:9990/mogai_api.php/v1.vod"},
{"key":"csp_appysv2_大威电影","name":"大威电影(普)","type":3,"api":"csp_AppYsV2","searchable":1,"quickSearch":1,"filterable":1,"ext":"http://vip.davdy.com/ruifenglb_api.php/v1.vod"},
{"key":"csp_appysv2_豆渣影视","name":"豆渣影视(普)","type":3,"api":"csp_AppYsV2","searchable":1,"quickSearch":1,"filterable":1,"ext":"http://douzhayss.cc/api.php/v1.vod"},
{"key":"csp_appysv2_黄河影视","name":"黄河影视(普)","type":3,"api":"csp_AppYsV2","searchable":1,"quickSearch":1,"filterable":1,"ext":"http://i.ledu8.cn/api.php/v1.vod"},
{"key":"csp_appysv2_火星人","name":"火星人(普)","type":3,"api":"csp_AppYsV2","searchable":1,"quickSearch":1,"filterable":1,"ext":"https://www.huoxing9.com/mogai_api.php/v1.vod"},
{"key":"csp_appysv2_晗先森","name":"晗先森(普)","type":3,"api":"csp_AppYsV2","searchable":1,"quickSearch":1,"filterable":1,"ext":"https://hantv.top/api.php/v1.vod"},
{"key":"csp_appysv2_盒子影院","name":"盒子影院(普)","type":3,"api":"csp_AppYsV2","searchable":1,"quickSearch":1,"filterable":1,"ext":"http://i.nihaohezi.com/api.php/v1.vod"},
{"key":"csp_appysv2_筋斗云","name":"筋斗云(普)","type":3,"api":"csp_AppYsV2","searchable":1,"quickSearch":1,"filterable":1,"ext":"https://tv.jindcloud.com/api.php/v1.vod"},
{"key":"csp_appysv2_极光影院","name":"极光影院(普)","type":3,"api":"csp_AppYsV2","searchable":1,"quickSearch":1,"filterable":1,"ext":"http://app.winxz.cc/api.php/v1.vod"},
{"key":"csp_appysv2_聚合视频","name":"聚合视频(普)","type":3,"api":"csp_AppYsV2","searchable":1,"quickSearch":1,"filterable":1,"ext":"https://app.jhystv.com/mogai_api.php/v1.vod"},
{"key":"csp_appysv2_极酷视频","name":"极酷视频(普)","type":3,"api":"csp_AppYsV2","searchable":1,"quickSearch":1,"filterable":1,"ext":"https://jiku.vip/mogai_api.php/v1.vod"},
{"key":"csp_appysv2_极品影视p","name":"极品影视(普)","type":3,"api":"csp_AppYsV2","searchable":1,"quickSearch":1,"filterable":1,"ext":"http://app.yhzy.xyz/lvdou_api.php/v1.vod"},
{"key":"csp_appysv2_橘子影视","name":"橘子影视(普)","type":3,"api":"csp_AppYsV2","searchable":1,"quickSearch":1,"filterable":1,"ext":"http://jz.juzidy.vip/mogai_api.php/v1.vod"},
{"key":"csp_appysv2_看剧吧","name":"看剧吧(普)","type":3,"api":"csp_AppYsV2","searchable":1,"quickSearch":1,"filterable":1,"ext":"http://app.ishen520.com/api.php/v1.vod"},
{"key":"csp_appysv2_看看剧","name":"看看剧(普)","type":3,"api":"csp_AppYsV2","searchable":1,"quickSearch":1,"filterable":1,"ext":"https://www.kankanju.cn/api.php/v1.vod"},
{"key":"csp_appysv2_看看视频","name":"看看视频(普)","type":3,"api":"csp_AppYsV2","searchable":1,"quickSearch":1,"filterable":1,"ext":"http://888.ccboke.top/ruifenglb_api.php/v1.vod"},
{"key":"csp_appysv2_绿豆视频","name":"绿豆视频(普)","type":3,"api":"csp_AppYsV2","searchable":1,"quickSearch":1,"filterable":1,"ext":"https://v.lvdoui.cn/mogai_api.php/v1.vod"},
{"key":"csp_appysv2_蓝光视频","name":"蓝光视频(普)","type":3,"api":"csp_AppYsV2","searchable":1,"quickSearch":1,"filterable":1,"ext":"http://vip.91iqiyi.com/mogai_api.php/v1.vod"},
{"key":"csp_appysv2_乐看影视","name":"乐看影视(普)","type":3,"api":"csp_AppYsV2","searchable":1,"quickSearch":1,"filterable":1,
"ext":"http://z001.cye1688.com/api.php/v1.vod"},
{"key":"csp_appysv2_冷视TV","name":"冷视TV(普)","type":3,"api":"csp_AppYsV2","searchable":1,"quickSearch":1,"filterable":1,"ext":"https://len.tv/api.php/v1.vod"},
{"key":"csp_appysv2_乐云影视","name":"乐云影视(普)","type":3,"api":"csp_AppYsV2","searchable":1,"quickSearch":1,"filterable":1,
"ext":"https://www.leyun.tv/api.php/v1.vod"},
{"key":"csp_appysv2_免费影视","name":"免费影视(普)","type":3,"api":"csp_AppYsV2","searchable":1,"quickSearch":1,"filterable":1,"ext":"http://111.229.120.180:88/lvdou_api.php/v1.vod"},
{"key":"csp_appysv2_美剧范","name":"美剧范(普)","type":3,"api":"csp_AppYsV2","searchable":1,"quickSearch":1,"filterable":1,"ext":"http://ttzmz.net/api.php/v1.vod"},
{"key":"csp_appysv2_皮皮动漫","name":"皮皮动漫(普)","type":3,"api":"csp_AppYsV2","searchable":1,"quickSearch":1,"filterable":1,"ext":"http://dm.muying.me/mogai_api.php/v1.vod"},
{"key":"csp_appysv2_奇趣影视","name":"奇趣影视(普)","type":3,"api":"csp_AppYsV2","searchable":1,"quickSearch":1,"filterable":1,"ext":"https://app.qiqu.me/mogai_api.php/v1.vod"},
{"key":"csp_appysv2_任性看","name":"任性看(普)","type":3,"api":"csp_AppYsV2","searchable":1,"quickSearch":1,"filterable":1,"ext":"https://renxingkan.net/api.php/v1.vod"},
{"key":"csp_appysv2_速播影院","name":"速播影院(普)","type":3,"api":"csp_AppYsV2","searchable":1,"quickSearch":1,"filterable":1,"ext":"http://subolg.com/lvdou_api.php/v1.vod"},
{"key":"csp_appysv2_三日影院","name":"三日影院(普)","type":3,"api":"csp_AppYsV2","searchable":1,"quickSearch":1,"filterable":1,"ext":"https://www.3ri.net/api.php/v1.vod"},
{"key":"csp_appysv2_淘剧社","name":"淘剧社(普)","type":3,"api":"csp_AppYsV2","searchable":1,"quickSearch":1,"filterable":1,"ext":"https://app.shuhai99.com/api.php/v1.vod"},
{"key":"csp_appysv2_天天视频","name":"天天视频(普)","type":3,"api":"csp_AppYsV2","searchable":1,"quickSearch":1,"filterable":1,"ext":"http://app.qianju.cc/api.php/v1.vod"},
{"key":"csp_appysv2_兔子窝","name":"兔子窝(普)","type":3,"api":"csp_AppYsV2","searchable":1,"quickSearch":1,"filterable":1,"ext":"http://cj.huimaojia.com:12345/mogai_api.php/v1.vod"},
{"key":"csp_appysv2_我爱跟剧","name":"我爱跟剧(普)","type":3,"api":"csp_AppYsV2","searchable":1,"quickSearch":1,"filterable":1,"ext":"https://www.genmov.com/mogai_api.php/v1.vod"},
{"key":"csp_appysv2_吾爱影视","name":"吾爱影视(普)","type":3,"api":"csp_AppYsV2","searchable":1,"quickSearch":1,"filterable":1,"ext":"http://app.5lp.net/api.php/v1.vod"},
{"key":"csp_appysv2_蜗牛动漫","name":"蜗牛动漫(普)","type":3,"api":"csp_AppYsV2","searchable":1,"quickSearch":1,"filterable":1,"ext":"http://woniudm.woniu.cyou:20000/mogai_api.php/v1.vod"},
{"key":"csp_appysv2_寻常影视","name":"寻常影视(普)","type":3,"api":"csp_AppYsV2","searchable":1,"quickSearch":1,"filterable":1,"ext":"http://tv.91ymz.cn/api.php/v1.vod"},
{"key":"csp_appysv2_熊猫动漫","name":"熊猫动漫(普)","type":3,"api":"csp_AppYsV2","searchable":1,"quickSearch":1,"filterable":1,"ext":"http://dongman.k8aa.com/mogai_api.php/v1.vod"},
{"key":"csp_appysv2_熊猫视频","name":"熊猫视频(普)","type":3,"api":"csp_AppYsV2","searchable":1,"quickSearch":1,"filterable":1,"ext":"http://anegh.com/lvdou_api.php/v1.vod"},
{"key":"csp_appysv2_小鸟动漫","name":"小鸟动漫(普)","type":3,"api":"csp_AppYsV2","searchable":1,"quickSearch":1,"filterable":1,"ext":"http://xydm.baicai.buzz/mogai_api.php/v1.vod"},
{"key":"csp_appysv2_小蜻蜓","name":"小蜻蜓(普)","type":3,"api":"csp_AppYsV2","searchable":1,"quickSearch":1,"filterable":1,"ext":"http://3ketv.com/mogai_api.php/v1.vod"},
{"key":"csp_appysv2_星球视频","name":"星球视频(普)","type":3,"api":"csp_AppYsV2","searchable":1,"quickSearch":1,"filterable":1,"ext":"http://119.29.121.48:8088/api.php/v1.vod"},
{"key":"csp_appysv2_玺心影视","name":"玺心影视(普)","type":3,"api":"csp_AppYsV2","searchable":1,"quickSearch":1,"filterable":1,"ext":"https://tv.arbd.cn/api.php/v1.vod"},
{"key":"csp_appysv2_月儿影视","name":"月儿影视(普)","type":3,"api":"csp_AppYsV2","searchable":1,"quickSearch":1,"filterable":1,"ext":"https://yue52.xyz/api.php/v1.vod"},
{"key":"csp_appysv2_源来影视","name":"源来影视(普)","type":3,"api":"csp_AppYsV2","searchable":1,"quickSearch":1,"filterable":1,"ext":"http://ld.ylaiys.com/lvdou_api.php/v1.vod"},
{"key":"csp_appysv2_云梦影视","name":"云梦影视(普)","type":3,"api":"csp_AppYsV2","searchable":1,"quickSearch":1,"filterable":1,"ext":"https://yun.yunl.xyz/mogai_api.php/v1.vod"},
{"key":"csp_appysv2_影视热剧","name":"影视热剧(普)","type":3,"api":"csp_AppYsV2","searchable":1,"quickSearch":1,"filterable":1,"ext":"http://lb.26ys.cn/api.php/v1.vod"},
{"key":"csp_appysv2_渔渔影视","name":"渔渔影视(普)","type":3,"api":"csp_AppYsV2","searchable":1,"quickSearch":1,"filterable":1,"ext":"http://luobo.yugenye.site/api.php/v1.vod"},
{"key":"csp_appysv2_柚子视频","name":"柚子视频(普)","type":3,"api":"csp_AppYsV2","searchable":1,"quickSearch":1,"filterable":1,"ext":"http://yz.26ys.cn/api.php/v1.vod"},
{"key":"csp_appysv2_追剧吧","name":"追剧吧(普)","type":3,"api":"csp_AppYsV2","searchable":1,"quickSearch":1,"filterable":1,"ext":"http://wtv.fit/api.php/v1.vod"},
{"key":"csp_appysv2_追剧猫","name":"追剧猫(普)","type":3,"api":"csp_AppYsV2","searchable":1,"quickSearch":1,"filterable":1,"ext":"http://tv.kmtvb.com/api.php/v1.vod"},
{"key":"csp_appysv2_猪猪影院","name":"猪猪影院(普)","type":3,"api":"csp_AppYsV2","searchable":1,"quickSearch":1,"filterable":1,"ext":"http://app.2zdyy.com/api.php/v1.vod"},
{"key":"csp_appysv2_2号币","name":"2号币(IPTV)","type":3,"api":"csp_AppYsV2","searchable":1,"quickSearch":1,"filterable":1,"ext":"http://phoebe.cf/api.php/iptv/vod/"},
{"key":"csp_appysv2_CV影视","name":"CV影视(IPTV)","type":3,"api":"csp_AppYsV2","searchable":1,"quickSearch":1,"filterable":1,"ext":"http://www.cccvvv.top/api.php/iptv/vod/"},
{"key":"csp_appysv2_HG影视","name":"HG影视(IPTV)","type":3,"api":"csp_AppYsV2","searchable":1,"quickSearch":1,"filterable":1,"ext":"http://api.hgyx.vip/api.php/iptv/vod/"},
{"key":"csp_appysv2_爱西西TV","name":"爱西西TV(IPTV)","type":3,"api":"csp_AppYsV2","searchable":1,"quickSearch":1,"filterable":1,"ext":"http://tv2.aixixi.vip/api.php/iptv/vod/"},
{"key":"csp_appysv2_刺桐影视","name":"刺桐影视(IPTV)","type":3,"api":"csp_AppYsV2","searchable":1,"quickSearch":1,"filterable":1,"ext":"http://tv.cttv.vip/api.php/iptv/vod/"},
{"key":"csp_appysv2_嘀哩嘀哩","name":"嘀哩嘀哩(IPTV)","type":3,"api":"csp_AppYsV2","searchable":1,"quickSearch":1,"filterable":1,"ext":"https://api.diliktv.xyz/api.php/Chengcheng/vod/"},
{"key":"csp_appysv2_大师兄","name":"大师兄(IPTV)","type":3,"api":"csp_AppYsV2","searchable":1,"quickSearch":1,"filterable":1,"ext":"http://dsxtv.tv.ci/api.php/dsx/vod/"},
{"key":"csp_appysv2_二货影视","name":"二货影视(IPTV)","type":3,"api":"csp_AppYsV2","searchable":1,"quickSearch":1,"filterable":1,"ext":"http://d.zjj.life:88/mv/api.php/Chengcheng/vod/"},
{"key":"csp_appysv2_非凡影院","name":"非凡影院(IPTV)","type":3,"api":"csp_AppYsV2","searchable":1,"quickSearch":1,"filterable":1,"ext":"http://cms.feifan12.xyz/api.php/iptv/vod/"},
{"key":"csp_appysv2_嘿荼锋","name":"嘿荼锋(IPTV)","type":3,"api":"csp_AppYsV2","searchable":1,"quickSearch":1,"filterable":1,"ext":"http://tv.hfys8.vip/api.php/Sntv/vod/"},
{"key":"csp_appysv2_黑龙影视","name":"黑龙影视(IPTV)","type":3,"api":"csp_AppYsV2","searchable":1,"quickSearch":1,"filterable":1,"ext":"http://vip.ji-ding-he.site/api.php/iptv/vod/"},
{"key":"csp_appysv2_聚多影视","name":"聚多影视(IPTV)","type":3,"api":"csp_AppYsV2","searchable":1,"quickSearch":1,"filterable":1,"ext":"http://jdyy.weetai.cn/api.php/iptv/vod/"},
{"key":"csp_appysv2_极品影视","name":"极品影视(IPTV)","type":3,"api":"csp_AppYsV2","searchable":1,"quickSearch":1,"filterable":1,"ext":"http://jpsb.yhzy.xyz/api.php/iptv/vod/"},
{"key":"csp_appysv2_极品影院","name":"极品影院(IPTV)","type":3,"api":"csp_AppYsV2","searchable":1,"quickSearch":1,"filterable":1,"ext":"http://293x.yhzy.xyz/mv/api.php/Chengcheng/vod/"},
{"key":"csp_appysv2_流星雨","name":"流星雨(IPTV)","type":3,"api":"csp_AppYsV2","searchable":1,"quickSearch":1,"filterable":1,"ext":"http://nn.lxyyy.xyz:8/c/api.php/WAiLaowang/vod/"},
{"key":"csp_appysv2_荔枝影视","name":"荔枝影视(IPTV)","type":3,"api":"csp_AppYsV2","searchable":1,"quickSearch":1,"filterable":1,"ext":"http://api.zjys.vip/api.php/iptv/vod/"},
{"key":"csp_appysv2_蜜果TV","name":"蜜果TV(IPTV)","type":3,"api":"csp_AppYsV2","searchable":1,"quickSearch":1,"filterable":1,"ext":"http://vv.miguotv.net/m/api.php/Chengcheng/vod/"},
{"key":"csp_appysv2_米来影视","name":"米来影视(IPTV)","type":3,"api":"csp_AppYsV2","searchable":1,"quickSearch":1,"filterable":1,"ext":"http://42.51.37.161:2346/api.php/iptv/vod/"},
{"key":"csp_appysv2_米奇TV","name":"米奇TV(IPTV)","type":3,"api":"csp_AppYsV2","searchable":1,"quickSearch":1,"filterable":1,"ext":"http://www.s6ep3.top/api.php/iptv/vod/"},
{"key":"csp_appysv2_七科影视","name":"七科影视(IPTV)","type":3,"api":"csp_AppYsV2","searchable":1,"quickSearch":1,"filterable":1,"ext":"http://tv.7kfm.cn/api.php/iptv/vod/"},
{"key":"csp_appysv2_若惜影视","name":"若惜影视(IPTV)","type":3,"api":"csp_AppYsV2","searchable":1,"quickSearch":1,"filterable":1,"ext":"http://rxw.ruoxinew.com/api.php/Sntv/vod/"},
{"key":"csp_appysv2_思奇TV","name":"思奇TV(IPTV)","type":3,"api":"csp_AppYsV2","searchable":1,"quickSearch":1,"filterable":1,"ext":"http://tv.siqitv.vip/api.php/iptv/vod/"},
{"key":"csp_appysv2_山楂影视","name":"山楂影视(IPTV)","type":3,"api":"csp_AppYsV2","searchable":1,"quickSearch":1,"filterable":1,"ext":"http://dy6.dcd1.cn/api.php/iptv/vod/"},
{"key":"csp_appysv2_天空TV","name":"天空TV(IPTV)","type":3,"api":"csp_AppYsV2","searchable":1,"quickSearch":1,"filterable":1,"ext":"http://tv.tkys.tv/api.php/iptv/vod/"},
{"key":"csp_appysv2_虾皮视频","name":"虾皮视频(IPTV)","type":3,"api":"csp_AppYsV2","searchable":1,"quickSearch":1,"filterable":1,"ext":"http://tv.cmt8.xyz/api.php/iptv/vod/"},
{"key":"csp_appysv2_小极TV","name":"小极TV(IPTV)","type":3,"api":"csp_AppYsV2","searchable":1,"quickSearch":1,"filterable":1,"ext":"http://api.8d8q.com/mmv/api.php/Chengcheng/vod/"},
{"key":"csp_appysv2_小熊猫TV","name":"小熊猫TV(IPTV)","type":3,"api":"csp_AppYsV2","searchable":1,"quickSearch":1,"filterable":1,"ext":"http://tv2.hetaoys.vip/api.php/iptv/vod/"},
{"key":"csp_appysv2_影视阁","name":"影视阁(IPTV)","type":3,"api":"csp_AppYsV2","searchable":1,"quickSearch":1,"filterable":1,"ext":"http://216.98.10.85/api.php/iptv/vod/"}
],

"lives": [
{"group": "redirect","channels": [{"name": "redirect","urls": ["proxy://do=live&type=txt&ext=aHR0cHM6Ly9naXRsYWIuY29tL2xlbW9uNTIwMzAvb25saW5lLy0vcmF3L21haW4vdHcudHh0"]}]}],

"parses":[
{"name":"解析聚合","type":3,"url":"Demo"},
{"name":"Json并发","type":2,"url":"Parallel"},
{"name":"Json轮询","type":2,"url":"Sequence"},
{"name":"大熊影视","type":1,"url":"http://42.157.128.85:880/analysis/json/?uid=1735&my=bcdgkmpvxADJLNUYZ8&url=","ext":{"flag":["youku","优酷","mgtv","芒果","qq","腾讯","qiyi","爱奇艺","奇艺"]}},
{"name":"菜鸟追剧1","type":1,"url":"http://106.52.51.138:52013/lt.php?url=","ext":{"flag":["ltnb"]}},
{"name":"小白动漫","type":1,"url":"http://121.62.60.222:1314/lt.php?url=","ext":{"flag":["ltnb","longteng"]}},
{"name":"300看世界2","type":1,"url":"https://jx.300ys.xyz/json/m3u8.php/?url=","ext":{"flag":["ftqp4","xuanfeng"]}},
{"name":"300看世界3","type":1,"url":"http://jx.300ys.xyz/json/m3u8.php/?url=","ext":{"flag":["zy1080","xkys"]}},
{"name":"爱看美剧1","type":1,"url":"https://play.akmeiju.cc:553/akmeiju.php?url=","ext":{"flag":["aikan"]}},
{"name":"独播社","type":1,"url":"https://ltnb.jeeves.vip/home/api?type=ys&uid=2492729&key=bkmopwEFMNQSUWXZ67&url=","ext":{"flag":["ltnb","ziqie"]}},
{"name":"爱西西","type":1,"url":"http://jx.laodi.xyz:6699/api.php/user/jx?uid=4&ldkey=BLsUKYVZiWdmQc7bbpT3&url=","ext":{"flag":["laodim3u8"]}},
{"name":"白嫖影视","type":1,"url":"http://ts.yjhan.com:8090/api/?key=Y4GefMCIQJz23mc06R&url=","ext":{"flag":["CL4K"]}},
{"name":"段友影视","type":1,"url":"http://ts.yjhan.com:8090/api/?key=DSQFgXdmj9xkDyiXdr&url=","ext":{"flag":["CL4K"]}},
{"name":"爱看美剧","type":1,"url":"http://ts.yjhan.com:8090/api/?key=P6XfOl9hD3LpqOFdRJ&url=","ext":{"flag":["CL4K"]}},
{"name":"天诚影视1","type":1,"url":"https://yun.nbjx.vip:4399/json/?uid=6&tokey=befhmoqFHMOQRTUXZ7&url=","ext":{"flag":["qiyi","爱奇艺","奇艺"]}},
{"name":"益达影院1","type":1,"url":"https://ltnb.jeeves.vip/home/api?type=ys&uid=2509623&key=glnpyADKLMNOTU0249&url=","ext":{"flag":["ltnb","ziqie"]}},
{"name":"300看世界","type":1,"url":"https://jx.300ys.xyz/json/jh.php/?url=","ext":{"flag":["youku","优酷","qiyi","爱奇艺","奇艺","renrenmi","naifeimi","qq","腾讯","letv","乐视"]}},
{"name":"琳琅影院","type":1,"url":"http://ts.yjhan.com:8090/api/?key=njU0bfiF05eODFfktq&url=","ext":{"flag":["CL4K"]}},
{"name":"爱酷影视","type":1,"url":"https://yun.nbjx.vip:4399/json/?uid=5&tokey=ikmnorsvxyzCFKQU59&url=","ext":{"flag":["qq","腾讯","qiyi","爱奇艺","奇艺","youku","优酷","letv","乐视"]}},
{"name":"小白动漫1","type":1,"url":"https://ltnb.jeeves.vip/home/api?type=ys&uid=2753644&key=bdgipszEOPQUXZ3569&url=","ext":{"flag":["ltnb","longteng"]}},
{"name":"4K影院","type":1,"url":"http://47.100.138.210:91/home/api?type=ys&uid=7593435&key=ehortuyAHMNQTWX457&url=","ext":{"flag":["qiyi","爱奇艺","奇艺","qq","腾讯","youku","优酷","pptv","PPTV","letv","乐视","mgtv","芒果"]}},
{"name":"饭后电影","type":1,"url":"http://ts.yjhan.com:8090/api/?key=yNSLsBLOaUkKp2kZ6i&url=","ext":{"flag":["CL4K"]}},
{"name":"麻瓜视频","type":1,"url":"https://kuba.renrenmi.cc:2266/api/?key=a2bSwx5iAGx1g2qn4h&url=","ext":{"flag":["renrenmi","naifeimi"]}},
{"name":"零刻影院","type":1,"url":"http://ys.ling00.cn/json/?url=","ext":{"flag":["CL4K"]}},
{"name":"300看世界","type":1,"url":"https://languangyingshiziyuan.1080zy.top/longteng.php/?url=","ext":{"flag":["ltnb"]}},
{"name":"粉象视界","type":1,"url":"http://47.100.138.210:91/home/api?type=ys&uid=4476440&key=eghkvwxyFHORVX3478&url=","ext":{"flag":["mgtv","芒果","renrenmi","naifeimi","youku","优酷","qiyi","爱奇艺","奇艺"]}},
{"name":"爱酷影视6","type":1,"url":"https://jb.vjiangbei.com/home/api?type=ys&uid=646808&key=gklpqrtwyDIJKMP467&url=","ext":{"flag":["qq","腾讯","letv","乐视","youku","优酷"]}},
{"name":"益达影院6","type":1,"url":"https://jb.vjiangbei.com/home/api?type=ys&uid=281459&key=cfnoprCDJKLNPQTY34&url=","ext":{"flag":["ltnb","ziqie","qq","腾讯","youku","优酷","qiyi","爱奇艺","奇艺","mgtv","芒果","letv","乐视"]}},
{"name":"思乐影视1","type":1,"url":"https://jb.vjiangbei.com/home/api?type=ys&uid=2534396&key=ejovwzABDKTUXY1357&url=","ext":{"flag":["mgtv","芒果","qq","腾讯","qiyi","爱奇艺","奇艺","youku","优酷"]}},
{"name":"琅琊影视","type":1,"url":"https://ltjx.jeeves.vip/home/api?type=ys&uid=1589472&key=aehjpzAHILOPQRU456&url=","ext":{"flag":["ltnb"]}},
{"name":"DC影视2","type":1,"url":"https://ltjx.jeeves.vip/home/api?type=ys&uid=461939&key=adfgilmotCEPRSXY06&url=","ext":{"flag":["ltnb"]}},
{"name":"抹茶猪","type":1,"url":"https://ltjx.jeeves.vip/home/api?type=ys&uid=1136443&key=bhijopryzBJKLMSUX8&url=","ext":{"flag":["ltnb"]}},
{"name":"爱酷影视9","type":1,"url":"https://jx.zhanlangbu.com/json.php/?url=","ext":{"flag":["xueren"]}},
{"name":"思乐影视","type":1,"url":"https://ltjx.jeeves.vip/home/api?type=ys&uid=1427917&key=bdfilpqsxzDEGHRW04&url=","ext":{"flag":["ltnb"]}},
{"name":"大熊影视","type":1,"url":"https://jf.1080p.icu/home/api?type=dsp&uid=147565&key=adilmopuBEFJNUV067&url=","ext":{"flag":["wuduzy"]}},
{"name":"南府追剧1","type":1,"url":"https://jx.ncxmid.cn/sb/?url=","ext":{"flag":["qq","腾讯","qiyi","爱奇艺","奇艺","youku","优酷"]}},
{"name":"绿箭影视","type":1,"url":"https://ltjx.jeeves.vip/home/api?type=ys&uid=803828&key=cdefimpzDQTUW23679&url=","ext":{"flag":["ltnb"]}},
{"name":"小白动漫2","type":1,"url":"https://ltjx.jeeves.vip/home/api?type=ys&uid=1284948&key=bdehjlqtDEHJPZ0156&url=","ext":{"flag":["ltnb","longteng"]}},
{"name":"粉象视界","type":1,"url":"http://api.vip123kan.vip/?url=","ext":{"flag":["qq","腾讯","mgtv","芒果","youku","优酷"]}},
{"name":"琅琊影视8","type":1,"url":"https://jf.96ym.cn/api/?key=13FXcA46Nzg4QeFHbq&url=","ext":{"flag":["ziqie","ltnb","youku","优酷","qiyi","爱奇艺","奇艺","qq","腾讯","letv","乐视"]}},
{"name":"虎猫视频","type":1,"url":"https://humaosp.com/json.php?url=","ext":{"flag":["qq","腾讯"]}},
{"name":"天诚影视2","type":1,"url":"https://svip.renrenmi.cc:2222/api/?key=hWip8WQvRg7oniSF0M&url=","ext":{"flag":["qiyi","爱奇艺","奇艺"]}},
{"name":"DC影视","type":1,"url":"https://jb.vjiangbei.com/home/api?type=ys&uid=2219260&key=bcdjqBEFGLMPW01457&url=","ext":{"flag":["ziqie","ltnb","qq","腾讯"]}},
{"name":"南府追剧1","type":1,"url":"https://vvip.muxvip.com:8866/api/?key=xJvC19KWkxoyQO71hk&url=","ext":{"flag":["muxm3u8"]}},
{"name":"粉象视界1","type":1,"url":"https://www.xinkanke.com/jiexi/go.php?url=","ext":{"flag":["ltnb"]}},
{"name":"南府影视","type":1,"url":"https://vvip.muxvip.com:8866/api/?key=xVIWNjOvnxgmvrPgXO&url=","ext":{"flag":["muxm3u8"]}},
{"name":"大熊影视1","type":1,"url":"https://a.dxzj88.com/jianghujx/?url=","ext":{"flag":["qq","腾讯","youku","优酷","qiyi","爱奇艺","奇艺","bilibili","哔哩哔哩","哔哩","mgtv","芒果"]}},
{"name":"粉象视界1","type":1,"url":"https://json.pangujiexi.com:12345/json.php?url=","ext":{"flag":["youku","优酷","qq","腾讯","qiyi","爱奇艺","奇艺","mgtv","芒果"]}},
{"name":"手指","type":1,"url":"https://a.dxzj88.com/ddzy/dd.php?url=","ext":{"flag":["miaoparty","qiyi","爱奇艺","奇艺","qq","腾讯","youku","优酷","mgtv","芒果","letv","乐视","pptv","PPTV","miaoparty3"]}},
{"name":"大熊影视","type":1,"url":"http://a.dxzj88.com/ddzy/dd.php?url=","ext":{"flag":["duoduozy"]}},
{"name":"蜜蜂影视","type":1,"url":"http://23.224.174.74:5577/home/api?type=ys&uid=19722&key=aghknrsvxCDEGNRSUZ&url=","ext":{"flag":["dm","qiyi","爱奇艺","奇艺","pptv","PPTV","qq","腾讯"]}},
{"name":"段友影视1","type":1,"url":"https://api.m3u8.tv:5678/home/api?type=ys&uid=998036&key=afhlnuvzDJLMOX3689&url=","ext":{"flag":["qq","腾讯"]}},
{"name":"粉象视界5","type":1,"url":"https://vip.xfyun.one/home/api?type=ys&uid=2581923&key=aefiklotwzCEFHJO48&url=","ext":{"flag":["xfyun"]}},
{"name":"蜜蜂影视4","type":1,"url":"https://xrjson.qd234.cn/home/api?type=ys&uid=366750&key=afgrstxFGHJKLMQVX1&url=","ext":{"flag":["ltnb","xueren","renrenmi","naifeimi"]}},
{"name":"段友影视","type":1,"url":"https://api.qilin.best/home/api?type=ys&uid=2343358&key=cekpsuvxJKNOV34789&url=","ext":{"flag":["qq","腾讯"]}},
{"name":"菜鸟追剧","type":1,"url":"https://apis.jxcxin.cn/api/jx?url=","ext":{"flag":["qq","腾讯","mgtv","芒果"]}},
{"name":"天诚影视5","type":1,"url":"http://json.1920lgzy.top/api/?key=K6ROZoQ9Y5FxzkdgTT&url=","ext":{"flag":["1920l","qiyi","爱奇艺","奇艺"]}},
{"name":"六把刀影院","type":1,"url":"https://vip.aiaine.com/api/?key=pJiKdUKoatLiVha0el&url=","ext":{"flag":["miaoparty","miaoparty3"]}},
{"name":"琅琊影视7","type":1,"url":"https://api.m3u8.tv:5678/home/api?type=ys&uid=123503&key=ghinorsuvBCMOQTY68&url=","ext":{"flag":["ziqie","qiyi","爱奇艺","奇艺","qq","腾讯","mgtv","芒果"]}},
{"name":"饭后电影1","type":1,"url":"http://jx.yinliub.cn/home/api?type=ys&uid=512130&key=dinstuwBGJRTUY0369&url=","ext":{"flag":["ltnb","qq","腾讯","qiyi","爱奇艺","奇艺","letv","乐视","rx","youku","优酷","mgtv","芒果"]}},
{"name":"天诚影视","type":1,"url":"http://jf.tcspvip.com:246/api/?key=Yz4WsVTuG4PaM07i0f&url=","ext":{"flag":["1920l","qiyi","爱奇艺","奇艺"]}},
{"name":"4K影院","type":1,"url":"https://www.aiaine.com/api/?key=e4keFpymfY5keNsavC&url=","ext":{"flag":["qq","腾讯","qiyi","爱奇艺","奇艺","pptv","PPTV","mgtv","芒果","youku","优酷"]}},
{"name":"星星52","type":1,"url":"http://23.224.174.74:5577/home/api?type=ys&uid=19722&key=aghknrsvxCDEGNRSUZ&url=","ext":{"flags":["youku","qq","iqiyi","qiyi","letv","sohu","tudou","pptv","mgtv","wasu","bilibili","duoduozy","renrenmi","naifeimi"]}},
{"name":"星星53","type":1,"url":"http://42.157.128.85:880/analysis/json/?uid=1735&my=dhkmopwCFGIKOQRUX8&url=","ext":{"flags":["youku","qq","iqiyi","qiyi","letv","sohu","tudou","pptv","mgtv","wasu","bilibili","duoduozy","renrenmi","naifeimi"]}},
{"name":"星星54","type":1,"url":"http://47.100.138.210:91/home/api?type=ys&uid=4476440&key=eghkvwxyFHORVX3478&url=","ext":{"flags":["youku","qq","iqiyi","qiyi","letv","sohu","tudou","pptv","mgtv","wasu","bilibili","duoduozy","renrenmi","naifeimi"]}},
{"name":"星星55","type":1,"url":"http://app.renrenmi.cc:3333/api/?key=mtjJAJRXpwT5XAqWnn&url=","ext":{"flags":["youku","qq","iqiyi","qiyi","letv","sohu","tudou","pptv","mgtv","wasu","bilibili","duoduozy","renrenmi","naifeimi"]}},
{"name":"星星56","type":1,"url":"http://cs.024zs.com:8090/api/?key=ohApwnws7CIqX1xl9J&url=","ext":{"flags":["youku","qq","iqiyi","qiyi","letv","sohu","tudou","pptv","mgtv","wasu","bilibili","duoduozy","renrenmi","naifeimi"]}},
{"name":"星星58","type":1,"url":"http://jx.laodi.xyz:6699/api.php/user/jx?uid=4&ldkey=BLsUKYVZiWdmQc7bbpT3&url=","ext":{"flags":["youku","qq","iqiyi","qiyi","letv","sohu","tudou","pptv","mgtv","wasu","bilibili","duoduozy","renrenmi","naifeimi"]}},
{"name":"星星59","type":1,"url":"http://jx.maccms.ren/home/api?type=ys&uid=15959&key=abgisvyzFHJKOSTUW0&url=","ext":{"flags":["youku","qq","iqiyi","qiyi","letv","sohu","tudou","pptv","mgtv","wasu","bilibili","duoduozy","renrenmi","naifeimi"]}},
{"name":"星星60","type":1,"url":"http://ts.yjhan.com:8090/api/?key=43yVlZDaJg7dYH3DZi&url=","ext":{"flags":["youku","qq","iqiyi","qiyi","letv","sohu","tudou","pptv","mgtv","wasu","bilibili","duoduozy","renrenmi","naifeimi"]}},
{"name":"星星61","type":1,"url":"http://ts.yjhan.com:8090/api/?key=DSQFgXdmj9xkDyiXdr&url=","ext":{"flags":["youku","qq","iqiyi","qiyi","letv","sohu","tudou","pptv","mgtv","wasu","bilibili","duoduozy","renrenmi","naifeimi"]}},
{"name":"星星62","type":1,"url":"http://ts.yjhan.com:8090/api/?key=ZqS8HhnDRUmTBQQfnh&url=","ext":{"flags":["youku","qq","iqiyi","qiyi","letv","sohu","tudou","pptv","mgtv","wasu","bilibili","duoduozy","renrenmi","naifeimi"]}},
{"name":"星星63","type":1,"url":"http://ts.yjhan.com:8090/api/?key=yNSLsBLOaUkKp2kZ6i&url=","ext":{"flags":["youku","qq","iqiyi","qiyi","letv","sohu","tudou","pptv","mgtv","wasu","bilibili","duoduozy","renrenmi","naifeimi"]}},
{"name":"星星64","type":1,"url":"http://ts.yjhan.com:8090/api/?key=DSQFgXdmj9xkDyiXdr&url=","ext":{"flags":["youku","qq","iqiyi","qiyi","letv","sohu","tudou","pptv","mgtv","wasu","bilibili","duoduozy","renrenmi","naifeimi"]}},
{"name":"星星65","type":1,"url":"http://www.cxshare.cc/api/?key=rnYfLNd2efv18yrl2m&url=","ext":{"flags":["youku","qq","iqiyi","qiyi","letv","sohu","tudou","pptv","mgtv","wasu","bilibili","duoduozy","renrenmi","naifeimi"]}},
{"name":"星星66","type":1,"url":"http://www.mgtv.com.cxshare.cc/api/?key=rnYfLNd2efv18yrl2m&url=","ext":{"flags":["youku","qq","iqiyi","qiyi","letv","sohu","tudou","pptv","mgtv","wasu","bilibili","duoduozy","renrenmi","naifeimi"]}},
{"name":"星星67","type":1,"url":"http://www.yyiw.cn/home/api?type=ys&uid=1746003&key=bcopqxADEFHIJRW467&url=","ext":{"flags":["laodim3u8","youku","qq","iqiyi","qiyi","letv","sohu","tudou","pptv","mgtv","wasu","bilibili","duoduozy","renrenmi","naifeimi"]}},
{"name":"星星68","type":1,"url":"http://yunhai.lanmaoymw.cn/api/?key=9u3r1BviBqVMs2FtmT&url=","ext":{"flags":["youku","qq","iqiyi","qiyi","letv","sohu","tudou","pptv","mgtv","wasu","bilibili","duoduozy","renrenmi","naifeimi"]}},
{"name":"星星69","type":1,"url":"https://2233.yuanmajs.cn/api/?key=p6vpQCno0dPXbX4UQe&url=","ext":{"flags":["youku","qq","iqiyi","qiyi","letv","sohu","tudou","pptv","mgtv","wasu","bilibili","duoduozy","renrenmi","naifeimi"]}},
{"name":"星星70","type":1,"url":"https://api.m3u8.tv:5678/home/api?type=ys&uid=123503&key=ghinorsuvBCMOQTY68&url=","ext":{"flags":["youku","qq","iqiyi","qiyi","letv","sohu","tudou","pptv","mgtv","wasu","bilibili","duoduozy","renrenmi","naifeimi"]}},
{"name":"星星71","type":1,"url":"https://api.m3u8.tv:5678/home/api?type=ys&uid=998036&key=afhlnuvzDJLMOX3689&url=","ext":{"flags":["youku","qq","iqiyi","qiyi","letv","sohu","tudou","pptv","mgtv","wasu","bilibili","duoduozy","renrenmi","naifeimi"]}},
{"name":"星星72","type":1,"url":"https://api.m3u8.tv:5678/home/api?type=ys&uid=4614156&key=acdklrzHIMNSUVX245&url=","ext":{"flags":["youku","qq","iqiyi","qiyi","letv","sohu","tudou","pptv","mgtv","wasu","bilibili","duoduozy","renrenmi","naifeimi"]}},
{"name":"星星73","type":1,"url":"https://api.m3u8.tv:5678/home/api?type=ys&uid=8153438&key=dfjkmopxHJKNXZ2389&url=","ext":{"flags":["youku","qq","iqiyi","qiyi","letv","sohu","tudou","pptv","mgtv","wasu","bilibili","duoduozy","renrenmi","naifeimi"]}},
{"name":"星星74","type":1,"url":"https://api.qilin.best/home/api?type=ys&uid=2343358&key=cekpsuvxJKNOV34789&url=","ext":{"flags":["youku","qq","iqiyi","qiyi","letv","sohu","tudou","pptv","mgtv","wasu","bilibili","duoduozy","renrenmi","naifeimi"]}},
{"name":"星星75","type":1,"url":"https://cs.024zs.com:4433/api/?key=5JQOabvSfe3bRuRcg6&url=","ext":{"flags":["youku","qq","iqiyi","qiyi","letv","sohu","tudou","pptv","mgtv","wasu","bilibili","duoduozy","renrenmi","naifeimi"]}},
{"name":"星星76","type":1,"url":"https://cs.024zs.com:4433/api/?key=LGUeur4mGYqAaUN3Zm&url=","ext":{"flags":["youku","qq","iqiyi","qiyi","letv","sohu","tudou","pptv","mgtv","wasu","bilibili","duoduozy","renrenmi","naifeimi"]}},
{"name":"星星77","type":1,"url":"https://cs.024zs.com:4433/api/?key=RMxGLBw1U2J2brQus6&url=","ext":{"flags":["youku","qq","iqiyi","qiyi","letv","sohu","tudou","pptv","mgtv","wasu","bilibili","duoduozy","renrenmi","naifeimi"]}},
{"name":"星星78","type":1,"url":"https://cs.024zs.com:4433/api/?key=VCDHl8VpAYYG8tpBCt&url=","ext":{"flags":["youku","qq","iqiyi","qiyi","letv","sohu","tudou","pptv","mgtv","wasu","bilibili","duoduozy","renrenmi","naifeimi"]}},
{"name":"星星79","type":1,"url":"https://cs.024zs.com:4433/api/?key=ZGIAzc1y86fEENqYWb&url=","ext":{"flags":["youku","qq","iqiyi","qiyi","letv","sohu","tudou","pptv","mgtv","wasu","bilibili","duoduozy","renrenmi","naifeimi"]}},
{"name":"星星80","type":1,"url":"https://cs.024zs.com:4433/api/?key=hKzvIMLB7jbWVeLXxw&url=","ext":{"flags":["youku","qq","iqiyi","qiyi","letv","sohu","tudou","pptv","mgtv","wasu","bilibili","duoduozy","renrenmi","naifeimi"]}},
{"name":"星星81","type":1,"url":"https://jb.vjiangbei.com/home/api?type=ys&uid=2219260&key=bcdjqBEFGLMPW01457&url=","ext":{"flags":["youku","qq","iqiyi","qiyi","letv","sohu","tudou","pptv","mgtv","wasu","bilibili","duoduozy","renrenmi","naifeimi"]}},
{"name":"星星82","type":1,"url":"https://jf.1080p.icu/home/api?type=dsp&uid=147565&key=adilmopuBEFJNUV067&url=","ext":{"flags":["youku","qq","iqiyi","qiyi","letv","sohu","tudou","pptv","mgtv","wasu","bilibili","duoduozy","renrenmi","naifeimi"]}},
{"name":"星星83","type":1,"url":"https://jx.xmau.cn/home/api?type=ys&uid=117834&key=abdehjstwxIJLOPU59&url=","ext":{"flags":["youku","qq","iqiyi","qiyi","letv","sohu","tudou","pptv","mgtv","wasu","bilibili","duoduozy","renrenmi","naifeimi"]}},
{"name":"星星84","type":1,"url":"https://kuba.renrenmi.cc:2266/api/?key=Yjm3USwyAriYMIm3PR&url=","ext":{"flags":["youku","qq","iqiyi","qiyi","letv","sohu","tudou","pptv","mgtv","wasu","bilibili","duoduozy","renrenmi","naifeimi"]}},
{"name":"星星85","type":1,"url":"https://ltjx.jeeves.vip/home/api?type=ys&uid=461939&key=adfgilmotCEPRSXY06&url=","ext":{"flags":["youku","qq","iqiyi","qiyi","letv","sohu","tudou","pptv","mgtv","wasu","bilibili","duoduozy","renrenmi","naifeimi"]}},
{"name":"星星86","type":1,"url":"https://ltjx.jeeves.vip/home/api?type=ys&uid=1589472&key=adegnxzBDJKMNOPR59&url=","ext":{"flags":["youku","qq","iqiyi","qiyi","letv","sohu","tudou","pptv","mgtv","wasu","bilibili","duoduozy","renrenmi","naifeimi"]}},
{"name":"星星87","type":1,"url":"https://ltjx.jeeves.vip/home/api?type=ys&uid=1765759&key=fiorvzBFKMOQVX6789&url=","ext":{"flags":["youku","qq","iqiyi","qiyi","letv","sohu","tudou","pptv","mgtv","wasu","bilibili","duoduozy","renrenmi","naifeimi"]}},
{"name":"星星88","type":1,"url":"https://ltjx.jeeves.vip/khd/?uid=1853064&key=jlruvwBDEFGIMQWZ46&url=","ext":{"flags":["youku","qq","iqiyi","qiyi","letv","sohu","tudou","pptv","mgtv","wasu","bilibili","duoduozy","renrenmi","naifeimi"]}},
{"name":"星星89","type":1,"url":"https://vip.23at.cn/home/api?type=ys&uid=4883852&key=adfimsvxzDKNOVX389&url=","ext":{"flags":["youku","qq","iqiyi","qiyi","letv","sohu","tudou","pptv","mgtv","wasu","bilibili","duoduozy","renrenmi","naifeimi"]}},
{"name":"星星90","type":1,"url":"https://vip.aiaine.com/api/?key=pJiKdUKoatLiVha0el&url=","ext":{"flags":["youku","qq","iqiyi","qiyi","letv","sohu","tudou","pptv","mgtv","wasu","bilibili","duoduozy","renrenmi","naifeimi"]}},
{"name":"星星91","type":1,"url":"https://vip.rongxingvr.top/api/?key=XgHGZaTLjhiDb8nMgp&url=","ext":{"flags":["youku","qq","iqiyi","qiyi","letv","sohu","tudou","pptv","mgtv","wasu","bilibili","duoduozy","renrenmi","naifeimi","naifeimi"]}},
{"name":"星星92","type":1,"url":"https://vip.rongxingvr.top/api/?key=gWN9XYGvgcCjfi8gGa&url=","ext":{"flags":["youku","qq","iqiyi","qiyi","letv","sohu","tudou","pptv","mgtv","wasu","bilibili","duoduozy","renrenmi","naifeimi","naifeimi"]}},
{"name":"星星93","type":1,"url":"https://vip.kpjx.cc/api/?key=VU93wdaptITbCRaVbG&url=","ext":{"flags":["youku","qq","iqiyi","qiyi","letv","sohu","tudou","pptv","mgtv","wasu","bilibili","duoduozy","renrenmi","naifeimi"]}},
{"name":"星星94","type":1,"url":"https://vvip.funsline.cn:8866/api/?key=8ywTiRHAbavcaKpl1n&url=","ext":{"flags":["youku","qq","iqiyi","qiyi","letv","sohu","tudou","pptv","mgtv","wasu","bilibili","duoduozy","renrenmi","naifeimi"]}},
{"name":"星星95","type":1,"url":"https://vvip.funsline.cn:8866/api/?key=vGbxC8zUkJLbD0VdE0&url=","ext":{"flags":["youku","qq","iqiyi","qiyi","letv","sohu","tudou","pptv","mgtv","wasu","bilibili","duoduozy","renrenmi","naifeimi"]}},
{"name":"星星96","type":1,"url":"https://vvip.muxvip.com:8866/api/?key=vGbxC8zUkJLbD0VdE0&url=","ext":{"flags":["youku","qq","iqiyi","qiyi","letv","sohu","tudou","pptv","mgtv","wasu","bilibili","duoduozy","renrenmi","naifeimi"]}},
{"name":"星星97","type":1,"url":"https://vvip.muxvip.com:8866/api/?key=yL9NOOdevf0zn1S27X&url=","ext":{"flags":["youku","qq","iqiyi","qiyi","letv","sohu","tudou","pptv","mgtv","wasu","bilibili","duoduozy","renrenmi","naifeimi"]}},
{"name":"星星98","type":1,"url":"https://ysjx.jikezhuji.com/api/?key=kekEyIVvU8GT1Xj1g1&url=","ext":{"flags":["youku","qq","iqiyi","qiyi","letv","sohu","tudou","pptv","mgtv","wasu","bilibili","duoduozy","renrenmi","naifeimi"]}},
{"name":"星星99","type":1,"url":"https://ysjx.jikezhuji.com/api/?key=mQ0OOQdZgaYq4qKv1S&url=","ext":{"flags":["youku","qq","iqiyi","qiyi","letv","sohu","tudou","pptv","mgtv","wasu","bilibili","duoduozy","renrenmi","naifeimi","xfyun"]}}
],

"flags":["youku","qq","iqiyi","qiyi","letv","sohu","tudou","pptv","mgtv","wasu","bilibili","duoduozy","longteng","renrenmi","优酷","芒果","腾讯","爱奇艺","奇艺","ltnb","rx","xueren","xfyun","ziqie","wuduzy","CL4K","xuanfeng","1920l"], 
"ijk":[
{"group":"软解码","options":[
{"category":4,"name":"opensles","value":"1"},
{"category":4,"name":"overlay-format","value":"842225234"},
{"category":4,"name":"framedrop","value":"1"},
{"category":4,"name":"soundtouch","value":"1"},
{"category":4,"name":"start-on-prepared","value":"1"},
{"category":1,"name":"http-detect-range-support","value":"1"},
{"category":1,"name":"fflags","value":"fastseek"},
{"category":2,"name":"skip_loop_filter","value":"48"},
{"category":4,"name":"reconnect","value":"1"},
{"category":4,"name":"enable-accurate-seek","value":"1"},
{"category":4,"name":"mediacodec","value":"1"},
{"category":4,"name":"mediacodec-auto-rotate","value":"1"},
{"category":4,"name":"mediacodec-handle-resolution-change","value":"1"},
{"category":4,"name":"mediacodec-hevc","value":"1"},
{"category":1,"name":"dns_cache_timeout","value":"600000000"}
]},
{"group":"硬解码","options":[
{"category":4,"name":"opensles","value":"1"},
{"category":4,"name":"overlay-format","value":"842225234"},
{"category":4,"name":"framedrop","value":"1"},
{"category":4,"name":"soundtouch","value":"1"},
{"category":4,"name":"start-on-prepared","value":"1"},
{"category":1,"name":"http-detect-range-support","value":"1"},
{"category":1,"name":"fflags","value":"fastseek"},
{"category":2,"name":"skip_loop_filter","value":"48"},
{"category":4,"name":"reconnect","value":"1"},
{"category":4,"name":"enable-accurate-seek","value":"1"},
{"category":4,"name":"mediacodec","value":"1"},
{"category":4,"name":"mediacodec-auto-rotate","value":"1"},
{"category":4,"name":"mediacodec-handle-resolution-change","value":"1"},
{"category":4,"name":"mediacodec-hevc","value":"1"},
{"category":1,"name":"dns_cache_timeout","value":"600000000"}
]}],
 
"ads":["mimg.0c1q0l.cn","www.googletagmanager.com","www.google-analytics.com","mc.usihnbcq.cn","mg.g1mm3d.cn","mscs.svaeuzh.cn","cnzz.hhttm.top","tp.vinuxhome.com","cnzz.mmstat.com","www.baihuillq.com","s23.cnzz.com","z3.cnzz.com","c.cnzz.com","stj.v1vo.top","z12.cnzz.com","img.mosflower.cn","tips.gamevvip.com","ehwe.yhdtns.com","xdn.cqqc3.com","www.jixunkyy.cn","sp.chemacid.cn","hm.baidu.com","s9.cnzz.com","z6.cnzz.com","um.cavuc.com","mav.mavuz.com","wofwk.aoidf3.com","z5.cnzz.com","xc.hubeijieshikj.cn","tj.tianwenhu.com","xg.gars57.cn","k.jinxiuzhilv.com","cdn.bootcss.com","ppl.xunzhuo123.com","xomk.jiangjunmh.top","img.xunzhuo123.com","z1.cnzz.com","s13.cnzz.com","xg.huataisangao.cn","z7.cnzz.com","xg.huataisangao.cn","z2.cnzz.com","s96.cnzz.com","q11.cnzz.com","thy.dacedsfa.cn","xg.whsbpw.cn","s19.cnzz.com","z8.cnzz.com","s4.cnzz.com","f5w.as12df.top","ae01.alicdn.com","www.92424.cn","k.wudejia.com","vivovip.mmszxc.top","qiu.xixiqiu.com","cdnjs.hnfenxun.com","cms.qdwght.com"],
 
"wallpaper":"https://picsum.photos/1280/720/?blur=10",

//"spider":"https://gitlab.com/lemon52030/online/-/raw/main/custom_spider.jar"
"spider":"https://github.com/catvod/CatVodTVSpider/blob/master/jar/custom_spider.jar?raw=true"
}
